<svg width="460" height="623" viewBox="0 0 460 623" fill="none" xmlns="http://www.w3.org/2000/svg">
<path d="M0 0H450C455.523 0 460 4.47715 460 10V613C460 618.523 455.523 623 450 623H0V0Z" fill="url(#paint0_radial)"/>
<mask id="mask0" mask-type="alpha" maskUnits="userSpaceOnUse" x="0" y="0" width="460" height="623">
<path d="M0 0H450C455.523 0 460 4.47715 460 10V613C460 618.523 455.523 623 450 623H0V0Z" fill="url(#paint1_radial)"/>
</mask>
<g mask="url(#mask0)">
<g style="mix-blend-mode:screen">
<path d="M-85 312C20.7244 312 23.2887 196.827 90.3675 196.827C157.446 196.827 157.401 271.671 227.044 271.671C296.687 271.671 287.06 119.47 371.459 99.6241C448.301 81.5415 451.405 220.424 508.136 220.424C564.867 220.424 559.694 157.661 629.337 157.661C698.98 157.661 732.497 311.962 864 311.962H389.5H-85V312Z" fill="url(#paint2_radial)"/>
</g>
<g style="mix-blend-mode:screen">
<path d="M864 311.962C732.497 311.962 698.98 157.661 629.337 157.661C559.694 157.661 564.867 220.424 508.136 220.424C451.405 220.424 448.301 81.5415 371.459 99.6241C287.06 119.47 296.687 271.671 227.044 271.671C157.401 271.671 157.446 196.827 90.3675 196.827C23.2888 196.827 20.7244 312 -85 312V311.962" stroke="url(#paint3_linear)"/>
</g>
<g style="mix-blend-mode:screen">
<path d="M-540 585C-434.276 585 -431.711 469.827 -364.633 469.827C-297.554 469.827 -297.599 544.671 -227.956 544.671C-158.313 544.671 -167.94 392.47 -83.5406 372.624C-6.69928 354.542 -3.59503 493.424 53.1362 493.424C109.867 493.424 104.694 430.661 174.337 430.661C243.98 430.661 277.497 584.962 409 584.962H-65.5H-540V585Z" fill="url(#paint4_radial)"/>
</g>
<g style="mix-blend-mode:screen">
<path d="M409 584.962C277.497 584.962 243.98 430.661 174.337 430.661C104.694 430.661 109.867 493.424 53.1362 493.424C-3.59506 493.424 -6.69927 354.542 -83.5406 372.624C-167.94 392.47 -158.313 544.671 -227.956 544.671C-297.599 544.671 -297.554 469.827 -364.633 469.827C-431.711 469.827 -434.276 585 -540 585V584.962" stroke="url(#paint5_linear)"/>
</g>
</g>
<g filter="url(#filter0_d)">
<circle cx="385" cy="98" r="5" fill="#1C4E83"/>
<circle cx="385" cy="98" r="4.5" stroke="#7BB6E4"/>
</g>
<g filter="url(#filter1_d)">
<circle cx="88" cy="197" r="5" fill="#19416F"/>
<circle cx="88" cy="197" r="4.5" stroke="#254F7B"/>
</g>
<g filter="url(#filter2_d)">
<path d="M133.608 207.437C143.33 169.514 177.443 143 216.515 143H238.066C313.684 143 368.311 215.483 347.625 288.37C340.545 313.318 325.503 334.332 305.735 348.964C303.778 350.411 301.027 349.809 299.762 347.728L270.389 299.401C269.318 297.638 269.678 295.375 271.104 293.886C278.588 286.073 283.188 275.464 283.188 263.778C283.188 239.762 263.761 220.294 239.796 220.294C215.831 220.294 196.404 239.762 196.404 263.778C196.404 287.793 215.831 307.262 239.796 307.262C243.513 307.262 247.122 306.793 250.565 305.912C252.498 305.417 254.575 306.15 255.612 307.857L284.899 356.041C286.207 358.194 285.378 361.015 283.067 362.011C269.161 368.01 253.913 371.29 238.066 371.29H187.01C183.676 371.29 180.747 373.507 179.835 376.72L159.294 449.1C154.104 467.386 137.437 480 118.467 480C90.7401 480 70.458 453.794 77.3566 426.882L133.608 207.437Z" fill="url(#paint6_radial)"/>
<path fill-rule="evenodd" clip-rule="evenodd" d="M292.06 352.448C296.043 349.954 301.29 351.167 303.779 355.158L351.195 431.185L336.771 440.219L289.355 364.193C286.866 360.201 288.076 354.943 292.06 352.448Z" fill="url(#paint7_radial)"/>
<path d="M341.608 393.032C365.573 393.032 385 412.501 385 436.516C385 460.531 365.573 480 341.608 480C317.643 480 298.216 460.531 298.216 436.516C298.216 412.501 317.643 393.032 341.608 393.032Z" fill="url(#paint8_radial)"/>
</g>
<g style="mix-blend-mode:screen">
<rect x="385" y="82" width="18" height="3" fill="#1C4E83"/>
</g>
<g style="mix-blend-mode:screen">
<rect x="385" y="86" width="11" height="2" fill="#1C4E83"/>
</g>
<path d="M88 180H106V183H88V180Z" fill="#1C4E83"/>
<path d="M88 184H99V186H88V184Z" fill="#1C4E83"/>
<defs>
<filter id="filter0_d" x="376" y="91" width="18" height="18" filterUnits="userSpaceOnUse" color-interpolation-filters="sRGB">
<feFlood flood-opacity="0" result="BackgroundImageFix"/>
<feColorMatrix in="SourceAlpha" type="matrix" values="0 0 0 0 0 0 0 0 0 0 0 0 0 0 0 0 0 0 127 0"/>
<feOffset dy="2"/>
<feGaussianBlur stdDeviation="2"/>
<feColorMatrix type="matrix" values="0 0 0 0 0.241458 0 0 0 0 0.308177 0 0 0 0 0.508333 0 0 0 1 0"/>
<feBlend mode="normal" in2="BackgroundImageFix" result="effect1_dropShadow"/>
<feBlend mode="normal" in="SourceGraphic" in2="effect1_dropShadow" result="shape"/>
</filter>
<filter id="filter1_d" x="79" y="190" width="18" height="18" filterUnits="userSpaceOnUse" color-interpolation-filters="sRGB">
<feFlood flood-opacity="0" result="BackgroundImageFix"/>
<feColorMatrix in="SourceAlpha" type="matrix" values="0 0 0 0 0 0 0 0 0 0 0 0 0 0 0 0 0 0 127 0"/>
<feOffset dy="2"/>
<feGaussianBlur stdDeviation="2"/>
<feColorMatrix type="matrix" values="0 0 0 0 0.241458 0 0 0 0 0.308177 0 0 0 0 0.508333 0 0 0 1 0"/>
<feBlend mode="normal" in2="BackgroundImageFix" result="effect1_dropShadow"/>
<feBlend mode="normal" in="SourceGraphic" in2="effect1_dropShadow" result="shape"/>
</filter>
<filter id="filter2_d" x="62" y="133" width="337" height="365" filterUnits="userSpaceOnUse" color-interpolation-filters="sRGB">
<feFlood flood-opacity="0" result="BackgroundImageFix"/>
<feColorMatrix in="SourceAlpha" type="matrix" values="0 0 0 0 0 0 0 0 0 0 0 0 0 0 0 0 0 0 127 0"/>
<feOffset dy="4"/>
<feGaussianBlur stdDeviation="7"/>
<feColorMatrix type="matrix" values="0 0 0 0 0.0815972 0 0 0 0 0.239927 0 0 0 0 0.416667 0 0 0 1 0"/>
<feBlend mode="normal" in2="BackgroundImageFix" result="effect1_dropShadow"/>
<feBlend mode="normal" in="SourceGraphic" in2="effect1_dropShadow" result="shape"/>
</filter>
<radialGradient id="paint0_radial" cx="0" cy="0" r="1" gradientUnits="userSpaceOnUse" gradientTransform="translate(491.625 -72.4419) rotate(121.894) scale(1066.54 975.202)">
<stop stop-color="#1E568E"/>
<stop offset="1" stop-color="#142C4E"/>
</radialGradient>
<radialGradient id="paint1_radial" cx="0" cy="0" r="1" gradientUnits="userSpaceOnUse" gradientTransform="translate(491.625 -72.4419) rotate(121.894) scale(1066.54 975.202)">
<stop stop-color="#1E568E"/>
<stop offset="1" stop-color="#142C4E"/>
</radialGradient>
<radialGradient id="paint2_radial" cx="0" cy="0" r="1" gradientUnits="userSpaceOnUse" gradientTransform="translate(280 -68) rotate(74.7718) scale(373.101 446.105)">
<stop stop-color="#EC0F79"/>
<stop offset="1" stop-color="#18406E" stop-opacity="0"/>
</radialGradient>
<linearGradient id="paint3_linear" x1="410.5" y1="64.5" x2="154.5" y2="362.5" gradientUnits="userSpaceOnUse">
<stop stop-color="#7AACE7"/>
<stop offset="1" stop-color="#495C73" stop-opacity="0"/>
</linearGradient>
<radialGradient id="paint4_radial" cx="0" cy="0" r="1" gradientUnits="userSpaceOnUse" gradientTransform="translate(49 251.5) rotate(80.1503) scale(303.981 363.46)">
<stop stop-color="#EC0F79"/>
<stop offset="1" stop-color="#18406E" stop-opacity="0"/>
</radialGradient>
<linearGradient id="paint5_linear" x1="20" y1="326.5" x2="179.5" y2="598" gradientUnits="userSpaceOnUse">
<stop stop-color="#7AACE7"/>
<stop offset="1" stop-color="#495C73" stop-opacity="0"/>
</linearGradient>
<radialGradient id="paint6_radial" cx="0" cy="0" r="1" gradientUnits="userSpaceOnUse" gradientTransform="translate(359.582 73.122) rotate(119.588) scale(692.433 683.895)">
<stop stop-color="#4885C4"/>
<stop offset="1" stop-color="#142C4E"/>
</radialGradient>
<radialGradient id="paint7_radial" cx="0" cy="0" r="1" gradientUnits="userSpaceOnUse" gradientTransform="translate(359.582 73.122) rotate(119.588) scale(692.433 683.895)">
<stop stop-color="#4885C4"/>
<stop offset="1" stop-color="#142C4E"/>
</radialGradient>
<radialGradient id="paint8_radial" cx="0" cy="0" r="1" gradientUnits="userSpaceOnUse" gradientTransform="translate(359.582 73.122) rotate(119.588) scale(692.433 683.895)">
<stop stop-color="#4885C4"/>
<stop offset="1" stop-color="#142C4E"/>
</radialGradient>
</defs>
</svg>
