<?xml version="1.0" encoding="utf-8"?>
<svg width="65px" height="40px" xmlns="http://www.w3.org/2000/svg">
  <defs>
    <radialGradient id="paint1_radial" cx="0" cy="0" r="1" gradientUnits="userSpaceOnUse" gradientTransform="matrix(-4.899978, 5.813967, -5.83982, -4.921766, 33.919998, -28.079032)">
      <stop stop-color="#1E568E"/>
      <stop offset="1" stop-color="#142C4E"/>
    </radialGradient>
    <radialGradient id="paint2_radial" cx="0" cy="0" r="1" gradientUnits="userSpaceOnUse" gradientTransform="matrix(-4.899978, 5.813967, -5.83982, -4.921766, 24.972578, -23.196082)">
      <stop stop-color="#1E568E"/>
      <stop offset="1" stop-color="#142C4E"/>
    </radialGradient>
    <radialGradient id="paint3_radial" cx="0" cy="0" r="1" gradientUnits="userSpaceOnUse" gradientTransform="matrix(-4.899978, 5.813967, -5.83982, -4.921766, 42.949417, -23.131705)">
      <stop stop-color="#1E568E"/>
      <stop offset="1" stop-color="#142C4E"/>
    </radialGradient>
    <radialGradient id="paint4_radial" cx="0" cy="0" r="1" gradientUnits="userSpaceOnUse" gradientTransform="matrix(-4.899978, 5.813967, -5.83982, -4.921766, 54.434479, -13.20201)">
      <stop stop-color="#1E568E"/>
      <stop offset="1" stop-color="#142C4E"/>
    </radialGradient>
    <radialGradient id="paint5_radial" cx="0" cy="0" r="1" gradientUnits="userSpaceOnUse" gradientTransform="matrix(-4.899978, 5.813967, -5.83982, -4.921766, 46.253494, -13.215728)">
      <stop stop-color="#1E568E"/>
      <stop offset="1" stop-color="#142C4E"/>
    </radialGradient>
    <radialGradient id="gradient-1" cx="0" cy="0" r="1" gradientUnits="userSpaceOnUse" gradientTransform="matrix(-4.899978, 5.813967, -5.83982, -4.921766, 20.605482, -13.181731)">
      <stop stop-color="#1E568E"/>
      <stop offset="1" stop-color="#142C4E"/>
    </radialGradient>
    <radialGradient id="gradient-2" cx="0" cy="0" r="1" gradientUnits="userSpaceOnUse" gradientTransform="matrix(-4.899978, 5.813967, -5.83982, -4.921766, 50.322582, -18.266273)">
      <stop stop-color="#1E568E"/>
      <stop offset="1" stop-color="#142C4E"/>
    </radialGradient>
  </defs>
  <rect y="-39" width="65" height="39" rx="5.5" transform="matrix(1, 0, 0, -1, 0, 0)" fill="white" stroke="#DFE3EC"/>
  <mask id="path-2-inside-1" fill="white">
    <path d="M 7.069 13.227 L 59.166 13.227 L 59.199 12.227 L 7.102 12.227 L 7.069 13.227 Z" style=""/>
  </mask>
  <path d="M 7.117 13.227 L 7.084 14.227 L 6.084 14.227 L 6.117 13.227 L 7.117 13.227 Z M 59.117 13.227 L 60.117 13.227 L 60.084 14.227 L 59.084 14.227 L 59.117 13.227 Z M 59.151 12.227 L 59.184 11.227 L 60.184 11.227 L 60.151 12.227 L 59.151 12.227 Z M 7.151 12.227 L 6.151 12.227 L 6.184 11.227 L 7.184 11.227 L 7.151 12.227 Z M 7.151 12.227 L 59.151 12.227 L 59.084 14.227 L 7.084 14.227 L 7.151 12.227 Z M 58.117 13.227 L 58.151 12.227 L 60.151 12.227 L 60.117 13.227 L 58.117 13.227 Z M 59.117 13.227 L 7.117 13.227 L 7.184 11.227 L 59.184 11.227 L 59.117 13.227 Z M 8.151 12.227 L 8.117 13.227 L 6.117 13.227 L 6.151 12.227 L 8.151 12.227 Z" fill="#DFE3EC" mask="url(#path-2-inside-1)" style=""/>
  <path stroke="#194474" stroke-width="0.5" stroke-linecap="round" stroke-linejoin="round" style="fill: none; pointer-events: none; paint-order: fill;" d="M 16.378 12.672 L 20.794 23.303 L 29.341 27.512 L 38.825 22.45 L 41.941 12.48 L 45.979 17.42 L 50.648 12.607"/>
  <path stroke="#194474" stroke-width="0.5" stroke-linecap="round" stroke-linejoin="round" style="fill: none; pointer-events: none; paint-order: fill;" d="M 11.975 19.655 L 16.238 12.767"/>
  <circle r="2" transform="matrix(1, 0, 0, -1, 0, 0)" fill="url(#paint1_radial)" cx="29.645" cy="-27.614"/>
  <circle r="2" transform="matrix(1, 0, 0, -1, 0, 0)" fill="url(#paint2_radial)" cx="20.698" cy="-22.731"/>
  <circle r="2" transform="matrix(1, 0, 0, -1, 0, 0)" fill="url(#paint3_radial)" cx="38.675" cy="-22.666"/>
  <circle r="2" transform="matrix(1, 0, 0, -1, 0, 0)" fill="url(#paint4_radial)" cx="50.159" cy="-12.738"/>
  <circle r="2" transform="matrix(1, 0, 0, -1, 0, 0)" fill="url(#paint5_radial)" cx="41.978" cy="-12.751"/>
  <circle r="1" transform="matrix(1, 0, 0, -1, 0, 0)" fill="white" cx="20.682" cy="-22.715"/>
  <circle r="1" transform="matrix(1, 0, 0, -1, 0, 0)" fill="white" cx="29.645" cy="-27.614"/>
  <circle r="1" transform="matrix(1, 0, 0, -1, 0, 0)" fill="white" cx="38.713" cy="-22.621"/>
  <circle r="1" transform="matrix(1, 0, 0, -1, 0, 0)" fill="white" cx="41.985" cy="-12.732"/>
  <circle r="1" transform="matrix(1, 0, 0, -1, 0, 0)" fill="white" cx="50.164" cy="-12.726"/>
  <circle r="2" transform="matrix(1, 0, 0, -1, 0, 0)" fill="url(#gradient-1)" cx="16.331" cy="-12.717"/>
  <circle r="1" transform="matrix(1, 0, 0, -1, 0, 0)" fill="white" cx="16.352" cy="-12.722"/>
  <circle r="2" transform="matrix(1, 0, 0, -1, 0, 0)" fill="url(#gradient-2)" cx="46.046" cy="-17.801"/>
  <circle r="1" transform="matrix(1, 0, 0, -1, 0, 0)" fill="white" cx="46.084" cy="-17.801"/>
  <path style="fill: rgb(216, 216, 216); stroke: rgb(0, 0, 0);" d="M 101.968 82.799"/>
</svg>