<?xml version="1.0" encoding="utf-8"?>
<svg width="65px" height="40px" xmlns="http://www.w3.org/2000/svg">
  <defs>
    <radialGradient id="paint1_radial" cx="0" cy="0" r="1" gradientUnits="userSpaceOnUse" gradientTransform="matrix(-4.899978, 5.813967, -5.83982, -4.921766, 33.800453, 10.339288)">
      <stop stop-color="#1E568E"/>
      <stop offset="1" stop-color="#142C4E"/>
    </radialGradient>
    <radialGradient id="paint2_radial" cx="0" cy="0" r="1" gradientUnits="userSpaceOnUse" gradientTransform="matrix(-4.899978, 5.813967, -5.83982, -4.921766, 24.853033, 15.222239)">
      <stop stop-color="#1E568E"/>
      <stop offset="1" stop-color="#142C4E"/>
    </radialGradient>
    <radialGradient id="paint3_radial" cx="0" cy="0" r="1" gradientUnits="userSpaceOnUse" gradientTransform="matrix(-4.899978, 5.813967, -5.83982, -4.921766, 42.829872, 15.286618)">
      <stop stop-color="#1E568E"/>
      <stop offset="1" stop-color="#142C4E"/>
    </radialGradient>
    <radialGradient id="paint4_radial" cx="0" cy="0" r="1" gradientUnits="userSpaceOnUse" gradientTransform="matrix(-4.899978, 5.813967, -5.83982, -4.921766, 54.314933, 25.216311)">
      <stop stop-color="#1E568E"/>
      <stop offset="1" stop-color="#142C4E"/>
    </radialGradient>
    <radialGradient id="paint5_radial" cx="0" cy="0" r="1" gradientUnits="userSpaceOnUse" gradientTransform="matrix(-4.899978, 5.813967, -5.83982, -4.921766, 46.133949, 25.202593)">
      <stop stop-color="#1E568E"/>
      <stop offset="1" stop-color="#142C4E"/>
    </radialGradient>
    <radialGradient id="gradient-1" cx="0" cy="0" r="1" gradientUnits="userSpaceOnUse" gradientTransform="matrix(-4.899978, 5.813967, -5.83982, -4.921766, 20.485937, 25.23659)">
      <stop stop-color="#1E568E"/>
      <stop offset="1" stop-color="#142C4E"/>
    </radialGradient>
    <radialGradient id="gradient-2" cx="0" cy="0" r="1" gradientUnits="userSpaceOnUse" gradientTransform="matrix(-4.899978, 5.813967, -5.83982, -4.921766, 50.203037, 20.152047)">
      <stop stop-color="#1E568E"/>
      <stop offset="1" stop-color="#142C4E"/>
    </radialGradient>
  </defs>
  <rect y="-39" width="65" height="39" rx="5.5" transform="matrix(1, 0, 0, -1, 0, 0)" fill="white" stroke="#DFE3EC"/>
  <mask id="path-2-inside-1" fill="white">
    <path d="M 6.949 26.191 L 59.046 26.191 L 59.079 25.191 L 6.982 25.191 L 6.949 26.191 Z" style=""/>
  </mask>
  <path d="M 6.997 25.191 L 6.964 24.191 L 5.964 24.191 L 5.997 25.191 L 6.997 25.191 Z M 58.997 25.191 L 59.997 25.191 L 59.964 24.191 L 58.964 24.191 L 58.997 25.191 Z M 59.031 26.191 L 59.064 27.191 L 60.064 27.191 L 60.031 26.191 L 59.031 26.191 Z M 7.031 26.191 L 6.031 26.191 L 6.064 27.191 L 7.064 27.191 L 7.031 26.191 Z M 7.031 26.191 L 59.031 26.191 L 58.964 24.191 L 6.964 24.191 L 7.031 26.191 Z M 57.997 25.191 L 58.031 26.191 L 60.031 26.191 L 59.997 25.191 L 57.997 25.191 Z M 58.997 25.191 L 6.997 25.191 L 7.064 27.191 L 59.064 27.191 L 58.997 25.191 Z M 8.031 26.191 L 7.997 25.191 L 5.997 25.191 L 6.031 26.191 L 8.031 26.191 Z" fill="#DFE3EC" mask="url(#path-2-inside-1)" style=""/>
  <path stroke="#194474" stroke-width="0.5" stroke-linecap="round" stroke-linejoin="round" style="fill: none; pointer-events: none; paint-order: fill;" d="M 16.258 25.746 L 20.674 15.115 L 29.221 10.906 L 38.705 15.968 L 41.821 25.938 L 45.859 20.998 L 50.528 25.811"/>
  <path stroke="#194474" stroke-width="0.5" stroke-linecap="round" stroke-linejoin="round" style="fill: none; pointer-events: none; paint-order: fill;" d="M 11.855 18.763 L 16.118 25.651"/>
  <circle r="2" fill="url(#paint1_radial)" cx="29.525" cy="10.804"/>
  <circle r="2" fill="url(#paint2_radial)" cx="20.578" cy="15.687"/>
  <circle r="2" fill="url(#paint3_radial)" cx="38.555" cy="15.752"/>
  <circle r="2" fill="url(#paint4_radial)" cx="50.039" cy="25.68"/>
  <circle r="2" fill="url(#paint5_radial)" cx="41.858" cy="25.667"/>
  <circle r="1" fill="white" cx="20.562" cy="15.703"/>
  <circle r="1" fill="white" cx="29.525" cy="10.804"/>
  <circle r="1" fill="white" cx="38.593" cy="15.797"/>
  <circle r="1" fill="white" cx="41.865" cy="25.686"/>
  <circle r="1" fill="white" cx="50.044" cy="25.692"/>
  <circle r="2" fill="url(#gradient-1)" cx="16.211" cy="25.701"/>
  <circle r="1" fill="white" cx="16.232" cy="25.696"/>
  <circle r="2" fill="url(#gradient-2)" cx="45.926" cy="20.617"/>
  <circle r="1" fill="white" cx="45.964" cy="20.617"/>
</svg>