<svg width="66" height="40" viewBox="0 0 66 40" fill="none" xmlns="http://www.w3.org/2000/svg">
<rect x="0.5" y="0.5" width="65" height="39" rx="5.5" fill="white" stroke="#DFE3EC"/>
<rect x="17" y="8" width="8" height="17" fill="url(#paint0_radial)"/>
<rect x="29" y="30" width="8" height="2" fill="#83868D"/>
<rect x="41" y="8" width="8" height="17" fill="url(#paint1_radial)"/>
<rect x="20" y="6" width="2" height="22" fill="url(#paint2_radial)"/>
<rect x="32" y="27" width="2" height="8" fill="#83868D"/>
<rect x="44" y="6" width="2" height="22" fill="url(#paint3_radial)"/>
<defs>
<radialGradient id="paint0_radial" cx="0" cy="0" r="1" gradientUnits="userSpaceOnUse" gradientTransform="translate(23.45 5.3314) rotate(101.943) scale(28.9939 10.0701)">
<stop stop-color="#EF4444"/>
<stop offset="1" stop-color="#F33939"/>
</radialGradient>
<radialGradient id="paint1_radial" cx="0" cy="0" r="1" gradientUnits="userSpaceOnUse" gradientTransform="translate(47.45 5.3314) rotate(101.943) scale(28.9939 10.0701)">
<stop stop-color="#1CEFCC"/>
<stop offset="1" stop-color="#15E0A7"/>
</radialGradient>
<radialGradient id="paint2_radial" cx="0" cy="0" r="1" gradientUnits="userSpaceOnUse" gradientTransform="translate(21.6125 2.54651) rotate(92.3399) scale(36.7399 2.57108)">
<stop stop-color="#EF4444"/>
<stop offset="1" stop-color="#F33939"/>
</radialGradient>
<radialGradient id="paint3_radial" cx="0" cy="0" r="1" gradientUnits="userSpaceOnUse" gradientTransform="translate(45.6125 2.54651) rotate(92.3399) scale(36.7399 2.57108)">
<stop stop-color="#1CEFCC"/>
<stop offset="1" stop-color="#15E0A7"/>
</radialGradient>
</defs>
</svg>
