<svg width="66" height="40" viewBox="0 0 66 40" fill="none" xmlns="http://www.w3.org/2000/svg">
<rect x="0.5" y="0.5" width="65" height="39" rx="5.5" fill="white" stroke="#DFE3EC"/>
<path d="M12.5 16L50 9.5L25 31.5" stroke="#DFE3EC" stroke-linecap="round" stroke-linejoin="round"/>
<path d="M14 26.5L21 14.5L31 26.5L33 12L39.5 18L44 11L49 18" stroke="#194474" stroke-width="0.5" stroke-linecap="round" stroke-linejoin="round"/>
<circle cx="33" cy="13" r="2" fill="url(#paint0_radial)"/>
<circle cx="31" cy="27" r="2" fill="url(#paint1_radial)"/>
<circle cx="40" cy="18" r="2" fill="url(#paint2_radial)"/>
<circle cx="21" cy="15" r="2" fill="url(#paint3_radial)"/>
<circle cx="44" cy="11" r="2" fill="url(#paint4_radial)"/>
<circle r="1" transform="matrix(1 0 0 -1 44 11)" fill="white"/>
<circle r="1" transform="matrix(1 0 0 -1 40 18)" fill="white"/>
<circle r="1" transform="matrix(1 0 0 -1 33 13)" fill="white"/>
<circle r="1" transform="matrix(1 0 0 -1 21 15)" fill="white"/>
<circle r="1" transform="matrix(1 0 0 -1 31 27)" fill="white"/>
<defs>
<radialGradient id="paint0_radial" cx="0" cy="0" r="1" gradientUnits="userSpaceOnUse" gradientTransform="translate(35.275 10.5349) rotate(130.124) scale(7.60342 7.63723)">
<stop stop-color="#1E568E"/>
<stop offset="1" stop-color="#142C4E"/>
</radialGradient>
<radialGradient id="paint1_radial" cx="0" cy="0" r="1" gradientUnits="userSpaceOnUse" gradientTransform="translate(33.275 24.5349) rotate(130.124) scale(7.60342 7.63723)">
<stop stop-color="#1E568E"/>
<stop offset="1" stop-color="#142C4E"/>
</radialGradient>
<radialGradient id="paint2_radial" cx="0" cy="0" r="1" gradientUnits="userSpaceOnUse" gradientTransform="translate(42.275 15.5349) rotate(130.124) scale(7.60342 7.63723)">
<stop stop-color="#1E568E"/>
<stop offset="1" stop-color="#142C4E"/>
</radialGradient>
<radialGradient id="paint3_radial" cx="0" cy="0" r="1" gradientUnits="userSpaceOnUse" gradientTransform="translate(23.275 12.5349) rotate(130.124) scale(7.60342 7.63723)">
<stop stop-color="#1E568E"/>
<stop offset="1" stop-color="#142C4E"/>
</radialGradient>
<radialGradient id="paint4_radial" cx="0" cy="0" r="1" gradientUnits="userSpaceOnUse" gradientTransform="translate(46.275 8.53488) rotate(130.124) scale(7.60342 7.63723)">
<stop stop-color="#1E568E"/>
<stop offset="1" stop-color="#142C4E"/>
</radialGradient>
</defs>
</svg>
